%YAML 1.1
%TAG !u! tag:unity3d.com,2011:
--- !u!128 &12800000
Font:
  m_ObjectHideFlags: 0
  m_PrefabParentObject: {fileID: 0}
  m_PrefabInternal: {fileID: 0}
  m_Name: KomikaPaint_Large
  serializedVersion: 4
  m_AsciiStartOffset: 0
  m_Tracking: 1
  m_LineSpacing: 0.1
  m_CharacterSpacing: 1
  m_CharacterPadding: 0
  m_ConvertCase: 0
  m_DefaultMaterial: {fileID: 2100000, guid: 4d2c823635a00c84f857a3a6a307f1db, type: 2}
  m_CharacterRects:
  - serializedVersion: 2
    index: 32
    uv:
      serializedVersion: 2
      x: 0.96484375
      y: 0.4140625
      width: 0.025390625
      height: 0.025390625
    vert:
      serializedVersion: 2
      x: -6
      y: 6
      width: 13
      height: -13
    advance: 14
    flipped: 0
  - serializedVersion: 2
    index: 33
    uv:
      serializedVersion: 2
      x: 0.125
      y: 0.9042969
      width: 0.05859375
      height: 0.095703125
    vert:
      serializedVersion: 2
      x: -8
      y: -6
      width: 30
      height: -49
    advance: 14
    flipped: 0
  - serializedVersion: 2
    index: 34
    uv:
      serializedVersion: 2
      x: 0.47460938
      y: 0.38085938
      width: 0.0625
      height: 0.0546875
    vert:
      serializedVersion: 2
      x: -3
      y: -5
      width: 32
      height: -28
    advance: 19
    flipped: 0
  - serializedVersion: 2
    index: 35
    uv:
      serializedVersion: 2
      x: 0
      y: 0.34960938
      width: 0.078125
      height: 0.080078125
    vert:
      serializedVersion: 2
      x: -7
      y: -10
      width: 40
      height: -41
    advance: 25
    flipped: 0
  - serializedVersion: 2
    index: 36
    uv:
      serializedVersion: 2
      x: 0
      y: 0.90234375
      width: 0.0625
      height: 0.09765625
    vert:
      serializedVersion: 2
      x: -7
      y: -6
      width: 32
      height: -50
    advance: 19
    flipped: 0
  - serializedVersion: 2
    index: 37
    uv:
      serializedVersion: 2
      x: 0.8378906
      y: 0.5332031
      width: 0.076171875
      height: 0.087890625
    vert:
      serializedVersion: 2
      x: -4
      y: -9
      width: 39
      height: -45
    advance: 32
    flipped: 0
  - serializedVersion: 2
    index: 38
    uv:
      serializedVersion: 2
      x: 0
      y: 0.6191406
      width: 0.076171875
      height: 0.08984375
    vert:
      serializedVersion: 2
      x: -8
      y: -8
      width: 39
      height: -46
    advance: 28
    flipped: 0
  - serializedVersion: 2
    index: 39
    uv:
      serializedVersion: 2
      x: 0.6113281
      y: 0.38671875
      width: 0.046875
      height: 0.05078125
    vert:
      serializedVersion: 2
      x: -4
      y: -7
      width: 24
      height: -26
    advance: 11
    flipped: 0
  - serializedVersion: 2
    index: 40
    uv:
      serializedVersion: 2
      x: 0.1875
      y: 0.9042969
      width: 0.05078125
      height: 0.095703125
    vert:
      serializedVersion: 2
      x: -5
      y: -6
      width: 26
      height: -49
    advance: 12
    flipped: 0
  - serializedVersion: 2
    index: 41
    uv:
      serializedVersion: 2
      x: 0.2421875
      y: 0.90625
      width: 0.056640625
      height: 0.09375
    vert:
      serializedVersion: 2
      x: -9
      y: -7
      width: 29
      height: -48
    advance: 14
    flipped: 0
  - serializedVersion: 2
    index: 42
    uv:
      serializedVersion: 2
      x: 0.15820312
      y: 0.36328125
      width: 0.0703125
      height: 0.06640625
    vert:
      serializedVersion: 2
      x: -5
      y: -9
      width: 36
      height: -34
    advance: 25
    flipped: 0
  - serializedVersion: 2
    index: 43
    uv:
      serializedVersion: 2
      x: 0.08203125
      y: 0.36328125
      width: 0.072265625
      height: 0.06640625
    vert:
      serializedVersion: 2
      x: -7
      y: -15
      width: 37
      height: -34
    advance: 26
    flipped: 0
  - serializedVersion: 2
    index: 44
    uv:
      serializedVersion: 2
      x: 0.6621094
      y: 0.38867188
      width: 0.048828125
      height: 0.048828125
    vert:
      serializedVersion: 2
      x: -11
      y: -34
      width: 25
      height: -25
    advance: 10
    flipped: 0
  - serializedVersion: 2
    index: 45
    uv:
      serializedVersion: 2
      x: 0.71484375
      y: 0.39648438
      width: 0.060546875
      height: 0.041015625
    vert:
      serializedVersion: 2
      x: -9
      y: -21
      width: 31
      height: -21
    advance: 21
    flipped: 0
  - serializedVersion: 2
    index: 46
    uv:
      serializedVersion: 2
      x: 0.9199219
      y: 0.40039062
      width: 0.041015625
      height: 0.0390625
    vert:
      serializedVersion: 2
      x: -7
      y: -34
      width: 21
      height: -20
    advance: 11
    flipped: 0
  - serializedVersion: 2
    index: 47
    uv:
      serializedVersion: 2
      x: 0.609375
      y: 0.8125
      width: 0.0703125
      height: 0.091796875
    vert:
      serializedVersion: 2
      x: -8
      y: -8
      width: 36
      height: -47
    advance: 19
    flipped: 0
  - serializedVersion: 2
    index: 48
    uv:
      serializedVersion: 2
      x: 0.31640625
      y: 0.43554688
      width: 0.0703125
      height: 0.087890625
    vert:
      serializedVersion: 2
      x: -6
      y: -9
      width: 36
      height: -45
    advance: 24
    flipped: 0
  - serializedVersion: 2
    index: 49
    uv:
      serializedVersion: 2
      x: 0.6621094
      y: 0.44140625
      width: 0.0546875
      height: 0.087890625
    vert:
      serializedVersion: 2
      x: -7
      y: -9
      width: 28
      height: -45
    advance: 13
    flipped: 0
  - serializedVersion: 2
    index: 50
    uv:
      serializedVersion: 2
      x: 0.91796875
      y: 0.5332031
      width: 0.076171875
      height: 0.087890625
    vert:
      serializedVersion: 2
      x: -9
      y: -9
      width: 39
      height: -45
    advance: 22
    flipped: 0
  - serializedVersion: 2
    index: 51
    uv:
      serializedVersion: 2
      x: 0
      y: 0.43359375
      width: 0.076171875
      height: 0.087890625
    vert:
      serializedVersion: 2
      x: -9
      y: -9
      width: 39
      height: -45
    advance: 23
    flipped: 0
  - serializedVersion: 2
    index: 52
    uv:
      serializedVersion: 2
      x: 0.4765625
      y: 0.625
      width: 0.07421875
      height: 0.08984375
    vert:
      serializedVersion: 2
      x: -7
      y: -8
      width: 38
      height: -46
    advance: 25
    flipped: 0
  - serializedVersion: 2
    index: 53
    uv:
      serializedVersion: 2
      x: 0.16015625
      y: 0.43359375
      width: 0.07421875
      height: 0.087890625
    vert:
      serializedVersion: 2
      x: -8
      y: -9
      width: 38
      height: -45
    advance: 21
    flipped: 0
  - serializedVersion: 2
    index: 54
    uv:
      serializedVersion: 2
      x: 0.9296875
      y: 0.7207031
      width: 0.06640625
      height: 0.08984375
    vert:
      serializedVersion: 2
      x: -7
      y: -8
      width: 34
      height: -46
    advance: 21
    flipped: 0
  - serializedVersion: 2
    index: 55
    uv:
      serializedVersion: 2
      x: 0.38085938
      y: 0.52734375
      width: 0.0703125
      height: 0.08984375
    vert:
      serializedVersion: 2
      x: -5
      y: -9
      width: 36
      height: -46
    advance: 23
    flipped: 0
  - serializedVersion: 2
    index: 56
    uv:
      serializedVersion: 2
      x: 0.23828125
      y: 0.43359375
      width: 0.07421875
      height: 0.087890625
    vert:
      serializedVersion: 2
      x: -7
      y: -9
      width: 38
      height: -45
    advance: 23
    flipped: 0
  - serializedVersion: 2
    index: 57
    uv:
      serializedVersion: 2
      x: 0.390625
      y: 0.43554688
      width: 0.068359375
      height: 0.087890625
    vert:
      serializedVersion: 2
      x: -6
      y: -9
      width: 35
      height: -45
    advance: 21
    flipped: 0
  - serializedVersion: 2
    index: 58
    uv:
      serializedVersion: 2
      x: 0.23242188
      y: 0.36523438
      width: 0.048828125
      height: 0.064453125
    vert:
      serializedVersion: 2
      x: -8
      y: -21
      width: 25
      height: -33
    advance: 12
    flipped: 0
  - serializedVersion: 2
    index: 59
    uv:
      serializedVersion: 2
      x: 0.8339844
      y: 0.44140625
      width: 0.048828125
      height: 0.087890625
    vert:
      serializedVersion: 2
      x: -10
      y: -16
      width: 25
      height: -45
    advance: 13
    flipped: 0
  - serializedVersion: 2
    index: 60
    uv:
      serializedVersion: 2
      x: 0.4140625
      y: 0.375
      width: 0.056640625
      height: 0.056640625
    vert:
      serializedVersion: 2
      x: -6
      y: -18
      width: 29
      height: -29
    advance: 18
    flipped: 0
  - serializedVersion: 2
    index: 61
    uv:
      serializedVersion: 2
      x: 0.5410156
      y: 0.3828125
      width: 0.06640625
      height: 0.052734375
    vert:
      serializedVersion: 2
      x: -6
      y: -19
      width: 34
      height: -27
    advance: 23
    flipped: 0
  - serializedVersion: 2
    index: 62
    uv:
      serializedVersion: 2
      x: 0.34960938
      y: 0.375
      width: 0.060546875
      height: 0.056640625
    vert:
      serializedVersion: 2
      x: -6
      y: -17
      width: 31
      height: -29
    advance: 19
    flipped: 0
  - serializedVersion: 2
    index: 63
    uv:
      serializedVersion: 2
      x: 0.7578125
      y: 0.8125
      width: 0.068359375
      height: 0.091796875
    vert:
      serializedVersion: 2
      x: -5
      y: -8
      width: 35
      height: -47
    advance: 24
    flipped: 0
  - serializedVersion: 2
    index: 64
    uv:
      serializedVersion: 2
      x: 0.88671875
      y: 0.44335938
      width: 0.083984375
      height: 0.0859375
    vert:
      serializedVersion: 2
      x: -6
      y: -9
      width: 43
      height: -44
    advance: 32
    flipped: 0
  - serializedVersion: 2
    index: 65
    uv:
      serializedVersion: 2
      x: 0.4375
      y: 0.71875
      width: 0.078125
      height: 0.08984375
    vert:
      serializedVersion: 2
      x: -9
      y: -8
      width: 40
      height: -46
    advance: 25
    flipped: 0
  - serializedVersion: 2
    index: 66
    uv:
      serializedVersion: 2
      x: 0.7597656
      y: 0.9082031
      width: 0.078125
      height: 0.091796875
    vert:
      serializedVersion: 2
      x: -7
      y: -8
      width: 40
      height: -47
    advance: 25
    flipped: 0
  - serializedVersion: 2
    index: 67
    uv:
      serializedVersion: 2
      x: 0.3828125
      y: 0.8125
      width: 0.072265625
      height: 0.091796875
    vert:
      serializedVersion: 2
      x: -7
      y: -8
      width: 37
      height: -47
    advance: 23
    flipped: 0
  - serializedVersion: 2
    index: 68
    uv:
      serializedVersion: 2
      x: 0.16015625
      y: 0.6191406
      width: 0.076171875
      height: 0.08984375
    vert:
      serializedVersion: 2
      x: -7
      y: -8
      width: 39
      height: -46
    advance: 26
    flipped: 0
  - serializedVersion: 2
    index: 69
    uv:
      serializedVersion: 2
      x: 0.859375
      y: 0.625
      width: 0.072265625
      height: 0.08984375
    vert:
      serializedVersion: 2
      x: -8
      y: -8
      width: 37
      height: -46
    advance: 20
    flipped: 0
  - serializedVersion: 2
    index: 70
    uv:
      serializedVersion: 2
      x: 0.70703125
      y: 0.625
      width: 0.072265625
      height: 0.08984375
    vert:
      serializedVersion: 2
      x: -8
      y: -8
      width: 37
      height: -46
    advance: 20
    flipped: 0
  - serializedVersion: 2
    index: 71
    uv:
      serializedVersion: 2
      x: 0.45898438
      y: 0.8125
      width: 0.072265625
      height: 0.091796875
    vert:
      serializedVersion: 2
      x: -7
      y: -8
      width: 37
      height: -47
    advance: 23
    flipped: 0
  - serializedVersion: 2
    index: 72
    uv:
      serializedVersion: 2
      x: 0.1015625
      y: 0.7128906
      width: 0.080078125
      height: 0.08984375
    vert:
      serializedVersion: 2
      x: -8
      y: -8
      width: 41
      height: -46
    advance: 24
    flipped: 0
  - serializedVersion: 2
    index: 73
    uv:
      serializedVersion: 2
      x: 0.7207031
      y: 0.44140625
      width: 0.052734375
      height: 0.087890625
    vert:
      serializedVersion: 2
      x: -8
      y: -9
      width: 27
      height: -45
    advance: 11
    flipped: 0
  - serializedVersion: 2
    index: 74
    uv:
      serializedVersion: 2
      x: 0.5546875
      y: 0.625
      width: 0.072265625
      height: 0.08984375
    vert:
      serializedVersion: 2
      x: -7
      y: -8
      width: 37
      height: -46
    advance: 22
    flipped: 0
  - serializedVersion: 2
    index: 75
    uv:
      serializedVersion: 2
      x: 0.18554688
      y: 0.71484375
      width: 0.080078125
      height: 0.08984375
    vert:
      serializedVersion: 2
      x: -8
      y: -8
      width: 41
      height: -46
    advance: 24
    flipped: 0
  - serializedVersion: 2
    index: 76
    uv:
      serializedVersion: 2
      x: 0.9355469
      y: 0.6269531
      width: 0.05859375
      height: 0.08984375
    vert:
      serializedVersion: 2
      x: -8
      y: -8
      width: 30
      height: -46
    advance: 18
    flipped: 0
  - serializedVersion: 2
    index: 77
    uv:
      serializedVersion: 2
      x: 0
      y: 0.7128906
      width: 0.09765625
      height: 0.08984375
    vert:
      serializedVersion: 2
      x: -8
      y: -8
      width: 50
      height: -46
    advance: 33
    flipped: 0
  - serializedVersion: 2
    index: 78
    uv:
      serializedVersion: 2
      x: 0.671875
      y: 0.5332031
      width: 0.08203125
      height: 0.087890625
    vert:
      serializedVersion: 2
      x: -8
      y: -9
      width: 42
      height: -45
    advance: 25
    flipped: 0
  - serializedVersion: 2
    index: 79
    uv:
      serializedVersion: 2
      x: 0.076171875
      y: 0.5253906
      width: 0.072265625
      height: 0.08984375
    vert:
      serializedVersion: 2
      x: -6
      y: -8
      width: 37
      height: -46
    advance: 25
    flipped: 0
  - serializedVersion: 2
    index: 80
    uv:
      serializedVersion: 2
      x: 0.765625
      y: 0.71875
      width: 0.078125
      height: 0.08984375
    vert:
      serializedVersion: 2
      x: -7
      y: -8
      width: 40
      height: -46
    advance: 25
    flipped: 0
  - serializedVersion: 2
    index: 81
    uv:
      serializedVersion: 2
      x: 0.15429688
      y: 0.80859375
      width: 0.072265625
      height: 0.091796875
    vert:
      serializedVersion: 2
      x: -6
      y: -8
      width: 37
      height: -47
    advance: 24
    flipped: 0
  - serializedVersion: 2
    index: 82
    uv:
      serializedVersion: 2
      x: 0.84765625
      y: 0.71875
      width: 0.078125
      height: 0.08984375
    vert:
      serializedVersion: 2
      x: -7
      y: -8
      width: 40
      height: -46
    advance: 26
    flipped: 0
  - serializedVersion: 2
    index: 83
    uv:
      serializedVersion: 2
      x: 0.24023438
      y: 0.62109375
      width: 0.076171875
      height: 0.08984375
    vert:
      serializedVersion: 2
      x: -9
      y: -8
      width: 39
      height: -46
    advance: 21
    flipped: 0
  - serializedVersion: 2
    index: 84
    uv:
      serializedVersion: 2
      x: 0.7832031
      y: 0.625
      width: 0.072265625
      height: 0.08984375
    vert:
      serializedVersion: 2
      x: -4
      y: -8
      width: 37
      height: -46
    advance: 23
    flipped: 0
  - serializedVersion: 2
    index: 85
    uv:
      serializedVersion: 2
      x: 0.080078125
      y: 0.43359375
      width: 0.076171875
      height: 0.087890625
    vert:
      serializedVersion: 2
      x: -7
      y: -9
      width: 39
      height: -45
    advance: 24
    flipped: 0
  - serializedVersion: 2
    index: 86
    uv:
      serializedVersion: 2
      x: 0
      y: 0.8066406
      width: 0.07421875
      height: 0.091796875
    vert:
      serializedVersion: 2
      x: -4
      y: -8
      width: 38
      height: -47
    advance: 25
    flipped: 0
  - serializedVersion: 2
    index: 87
    uv:
      serializedVersion: 2
      x: 0.40429688
      y: 0.9082031
      width: 0.09765625
      height: 0.091796875
    vert:
      serializedVersion: 2
      x: -6
      y: -8
      width: 50
      height: -47
    advance: 35
    flipped: 0
  - serializedVersion: 2
    index: 88
    uv:
      serializedVersion: 2
      x: 0.5917969
      y: 0.9082031
      width: 0.08203125
      height: 0.091796875
    vert:
      serializedVersion: 2
      x: -9
      y: -8
      width: 42
      height: -47
    advance: 25
    flipped: 0
  - serializedVersion: 2
    index: 89
    uv:
      serializedVersion: 2
      x: 0.68359375
      y: 0.8125
      width: 0.0703125
      height: 0.091796875
    vert:
      serializedVersion: 2
      x: -4
      y: -8
      width: 36
      height: -47
    advance: 23
    flipped: 0
  - serializedVersion: 2
    index: 90
    uv:
      serializedVersion: 2
      x: 0.3203125
      y: 0.62109375
      width: 0.07421875
      height: 0.08984375
    vert:
      serializedVersion: 2
      x: -9
      y: -9
      width: 38
      height: -46
    advance: 20
    flipped: 0
  - serializedVersion: 2
    index: 91
    uv:
      serializedVersion: 2
      x: 0.5292969
      y: 0.43945312
      width: 0.0625
      height: 0.087890625
    vert:
      serializedVersion: 2
      x: -7
      y: -9
      width: 32
      height: -45
    advance: 16
    flipped: 0
  - serializedVersion: 2
    index: 92
    uv:
      serializedVersion: 2
      x: 0.8300781
      y: 0.8125
      width: 0.05078125
      height: 0.091796875
    vert:
      serializedVersion: 2
      x: -4
      y: -8
      width: 26
      height: -47
    advance: 18
    flipped: 0
  - serializedVersion: 2
    index: 93
    uv:
      serializedVersion: 2
      x: 0.46289062
      y: 0.43945312
      width: 0.0625
      height: 0.087890625
    vert:
      serializedVersion: 2
      x: -8
      y: -9
      width: 32
      height: -45
    advance: 17
    flipped: 0
  - serializedVersion: 2
    index: 94
    uv:
      serializedVersion: 2
      x: 0.28515625
      y: 0.3671875
      width: 0.060546875
      height: 0.0625
    vert:
      serializedVersion: 2
      x: -4
      y: -8
      width: 31
      height: -32
    advance: 23
    flipped: 0
  - serializedVersion: 2
    index: 95
    uv:
      serializedVersion: 2
      x: 0
      y: 0.31054688
      width: 0.08203125
      height: 0.03515625
    vert:
      serializedVersion: 2
      x: -8
      y: -43
      width: 42
      height: -18
    advance: 23
    flipped: 0
  - serializedVersion: 2
    index: 96
    uv:
      serializedVersion: 2
      x: 0.7792969
      y: 0.39648438
      width: 0.0546875
      height: 0.041015625
    vert:
      serializedVersion: 2
      x: 1
      y: -2
      width: 28
      height: -21
    advance: 20
    flipped: 0
  - serializedVersion: 2
    index: 97
    uv:
      serializedVersion: 2
      x: 0.51953125
      y: 0.71875
      width: 0.078125
      height: 0.08984375
    vert:
      serializedVersion: 2
      x: -9
      y: -8
      width: 40
      height: -46
    advance: 25
    flipped: 0
  - serializedVersion: 2
    index: 98
    uv:
      serializedVersion: 2
      x: 0.6777344
      y: 0.9082031
      width: 0.078125
      height: 0.091796875
    vert:
      serializedVersion: 2
      x: -7
      y: -8
      width: 40
      height: -47
    advance: 25
    flipped: 0
  - serializedVersion: 2
    index: 99
    uv:
      serializedVersion: 2
      x: 0.30664062
      y: 0.8125
      width: 0.072265625
      height: 0.091796875
    vert:
      serializedVersion: 2
      x: -7
      y: -8
      width: 37
      height: -47
    advance: 23
    flipped: 0
  - serializedVersion: 2
    index: 100
    uv:
      serializedVersion: 2
      x: 0.080078125
      y: 0.6191406
      width: 0.076171875
      height: 0.08984375
    vert:
      serializedVersion: 2
      x: -7
      y: -8
      width: 39
      height: -46
    advance: 26
    flipped: 0
  - serializedVersion: 2
    index: 101
    uv:
      serializedVersion: 2
      x: 0.22851562
      y: 0.5253906
      width: 0.072265625
      height: 0.08984375
    vert:
      serializedVersion: 2
      x: -8
      y: -8
      width: 37
      height: -46
    advance: 20
    flipped: 0
  - serializedVersion: 2
    index: 102
    uv:
      serializedVersion: 2
      x: 0.3046875
      y: 0.52734375
      width: 0.072265625
      height: 0.08984375
    vert:
      serializedVersion: 2
      x: -8
      y: -8
      width: 37
      height: -46
    advance: 20
    flipped: 0
  - serializedVersion: 2
    index: 103
    uv:
      serializedVersion: 2
      x: 0.23046875
      y: 0.80859375
      width: 0.072265625
      height: 0.091796875
    vert:
      serializedVersion: 2
      x: -7
      y: -8
      width: 37
      height: -47
    advance: 23
    flipped: 0
  - serializedVersion: 2
    index: 104
    uv:
      serializedVersion: 2
      x: 0.26953125
      y: 0.71484375
      width: 0.080078125
      height: 0.08984375
    vert:
      serializedVersion: 2
      x: -8
      y: -8
      width: 41
      height: -46
    advance: 24
    flipped: 0
  - serializedVersion: 2
    index: 105
    uv:
      serializedVersion: 2
      x: 0.77734375
      y: 0.44140625
      width: 0.052734375
      height: 0.087890625
    vert:
      serializedVersion: 2
      x: -8
      y: -9
      width: 27
      height: -45
    advance: 11
    flipped: 0
  - serializedVersion: 2
    index: 106
    uv:
      serializedVersion: 2
      x: 0.15234375
      y: 0.5253906
      width: 0.072265625
      height: 0.08984375
    vert:
      serializedVersion: 2
      x: -7
      y: -8
      width: 37
      height: -46
    advance: 22
    flipped: 0
  - serializedVersion: 2
    index: 107
    uv:
      serializedVersion: 2
      x: 0.35351562
      y: 0.71875
      width: 0.080078125
      height: 0.08984375
    vert:
      serializedVersion: 2
      x: -8
      y: -8
      width: 41
      height: -46
    advance: 24
    flipped: 0
  - serializedVersion: 2
    index: 108
    uv:
      serializedVersion: 2
      x: 0.5234375
      y: 0.53125
      width: 0.05859375
      height: 0.08984375
    vert:
      serializedVersion: 2
      x: -8
      y: -8
      width: 30
      height: -46
    advance: 18
    flipped: 0
  - serializedVersion: 2
    index: 109
    uv:
      serializedVersion: 2
      x: 0.8847656
      y: 0.8144531
      width: 0.09765625
      height: 0.08984375
    vert:
      serializedVersion: 2
      x: -8
      y: -8
      width: 50
      height: -46
    advance: 33
    flipped: 0
  - serializedVersion: 2
    index: 110
    uv:
      serializedVersion: 2
      x: 0.5859375
      y: 0.5332031
      width: 0.08203125
      height: 0.087890625
    vert:
      serializedVersion: 2
      x: -8
      y: -9
      width: 42
      height: -45
    advance: 25
    flipped: 0
  - serializedVersion: 2
    index: 111
    uv:
      serializedVersion: 2
      x: 0
      y: 0.5253906
      width: 0.072265625
      height: 0.08984375
    vert:
      serializedVersion: 2
      x: -6
      y: -8
      width: 37
      height: -46
    advance: 25
    flipped: 0
  - serializedVersion: 2
    index: 112
    uv:
      serializedVersion: 2
      x: 0.68359375
      y: 0.71875
      width: 0.078125
      height: 0.08984375
    vert:
      serializedVersion: 2
      x: -7
      y: -8
      width: 40
      height: -46
    advance: 25
    flipped: 0
  - serializedVersion: 2
    index: 113
    uv:
      serializedVersion: 2
      x: 0.078125
      y: 0.8066406
      width: 0.072265625
      height: 0.091796875
    vert:
      serializedVersion: 2
      x: -6
      y: -8
      width: 37
      height: -47
    advance: 24
    flipped: 0
  - serializedVersion: 2
    index: 114
    uv:
      serializedVersion: 2
      x: 0.6015625
      y: 0.71875
      width: 0.078125
      height: 0.08984375
    vert:
      serializedVersion: 2
      x: -7
      y: -8
      width: 40
      height: -46
    advance: 26
    flipped: 0
  - serializedVersion: 2
    index: 115
    uv:
      serializedVersion: 2
      x: 0.8417969
      y: 0.9082031
      width: 0.076171875
      height: 0.091796875
    vert:
      serializedVersion: 2
      x: -9
      y: -7
      width: 39
      height: -47
    advance: 21
    flipped: 0
  - serializedVersion: 2
    index: 116
    uv:
      serializedVersion: 2
      x: 0.6308594
      y: 0.625
      width: 0.072265625
      height: 0.08984375
    vert:
      serializedVersion: 2
      x: -4
      y: -8
      width: 37
      height: -46
    advance: 23
    flipped: 0
  - serializedVersion: 2
    index: 117
    uv:
      serializedVersion: 2
      x: 0.7578125
      y: 0.5332031
      width: 0.076171875
      height: 0.087890625
    vert:
      serializedVersion: 2
      x: -7
      y: -9
      width: 39
      height: -45
    advance: 24
    flipped: 0
  - serializedVersion: 2
    index: 118
    uv:
      serializedVersion: 2
      x: 0.921875
      y: 0.9082031
      width: 0.07421875
      height: 0.091796875
    vert:
      serializedVersion: 2
      x: -4
      y: -8
      width: 38
      height: -47
    advance: 25
    flipped: 0
  - serializedVersion: 2
    index: 119
    uv:
      serializedVersion: 2
      x: 0.30273438
      y: 0.9082031
      width: 0.09765625
      height: 0.091796875
    vert:
      serializedVersion: 2
      x: -6
      y: -8
      width: 50
      height: -47
    advance: 35
    flipped: 0
  - serializedVersion: 2
    index: 120
    uv:
      serializedVersion: 2
      x: 0.5058594
      y: 0.9082031
      width: 0.08203125
      height: 0.091796875
    vert:
      serializedVersion: 2
      x: -9
      y: -8
      width: 42
      height: -47
    advance: 25
    flipped: 0
  - serializedVersion: 2
    index: 121
    uv:
      serializedVersion: 2
      x: 0.53515625
      y: 0.8125
      width: 0.0703125
      height: 0.091796875
    vert:
      serializedVersion: 2
      x: -4
      y: -8
      width: 36
      height: -47
    advance: 23
    flipped: 0
  - serializedVersion: 2
    index: 122
    uv:
      serializedVersion: 2
      x: 0.3984375
      y: 0.625
      width: 0.07421875
      height: 0.08984375
    vert:
      serializedVersion: 2
      x: -9
      y: -9
      width: 38
      height: -46
    advance: 20
    flipped: 0
  - serializedVersion: 2
    index: 123
    uv:
      serializedVersion: 2
      x: 0.45507812
      y: 0.53125
      width: 0.064453125
      height: 0.08984375
    vert:
      serializedVersion: 2
      x: -6
      y: -9
      width: 33
      height: -46
    advance: 18
    flipped: 0
  - serializedVersion: 2
    index: 124
    uv:
      serializedVersion: 2
      x: 0.06640625
      y: 0.90234375
      width: 0.0546875
      height: 0.09765625
    vert:
      serializedVersion: 2
      x: -5
      y: -6
      width: 28
      height: -50
    advance: 18
    flipped: 0
  - serializedVersion: 2
    index: 125
    uv:
      serializedVersion: 2
      x: 0.5957031
      y: 0.44140625
      width: 0.0625
      height: 0.087890625
    vert:
      serializedVersion: 2
      x: -8
      y: -9
      width: 32
      height: -45
    advance: 20
    flipped: 0
  - serializedVersion: 2
    index: 126
    uv:
      serializedVersion: 2
      x: 0.8378906
      y: 0.3984375
      width: 0.078125
      height: 0.0390625
    vert:
      serializedVersion: 2
      x: -5
      y: -15
      width: 40
      height: -20
    advance: 26
    flipped: 0
  m_Texture: {fileID: 0}
  m_KerningValues: []
  m_PixelScale: 0.1
  m_FontData: 
  m_FontSize: 0
  m_Ascent: 0
  m_DefaultStyle: 0
  m_FontNames: []
  m_FallbackFonts: []
  m_FontRenderingMode: 0
